Size, Run1, Run2, Run3, Run4, Run5, Run6, Run7, Run8, Run9, Run10
1000, 0, 0, 0, 0, 0, 0, 0, 0, 0, 0
1500, 0, 0, 0, 0, 0, 0, 0, 0, 0, 0
2000, 0, 0, 0, 0, 0, 0, 0, 0, 0, 0
2500, 0, 0, 0, 0, 0, 0, 0, 0, 0, 0
3000, 0, 0, 0, 0, 0, 0, 0, 0, 0, 0
3500, 0, 0, 0, 0, 0, 0, 0, 0, 0, 0
4000, 0, 0, 0, 0, 0, 0, 0, 0, 0, 0
4500, 0, 0, 0, 0, 0, 0, 0, 0, 0, 0
5000, 0, 0, 0, 0, 0, 0, 0, 0, 0, 0
5500, 0, 0, 0, 0, 0, 0, 0, 0, 0, 0
6000, 0, 0, 0, 0, 0, 0, 0, 0, 0, 0
6500, 0, 0, 0, 0, 0, 0, 0, 0, 0, 0
7000, 0, 0, 0, 0, 0, 0, 0, 0, 0, 0
7500, 0, 0, 0, 0, 0, 0, 0, 0, 0, 0
8000, 0, 0, 0, 0, 0, 0, 0, 0, 0, 0
8500, 0, 0, 0, 0, 0, 0, 0, 0, 0, 0
9000, 0, 0, 0, 0, 0, 0, 0, 0, 0, 0
9500, 0, 0, 0, 0, 0, 0, 0, 0, 0, 0
